[
  {
    "codigo": "I-01",
    "estado": "PARANÁ",
    "cidade": "ALMIRANTE TAMANDARÉ",
    "telefone": "(41) 3657-4057",
    "endereco": "Rodovia dos Minérios, 6099, km 16 - Jardim Dra. Belizária - Almirante Tamandaré-PR",
    "institucao": "JOVENS COM UMA MISSÃO \"MONTE DAS ÁGUIAS\" – JOCUM",
    "resumo": "Entidade reconhecida pela Organização das Nações Unidas que presta auxílio aos necessitados em todo o mundo. Em Almirante Tamandaré-PR, oferece visitas domiciliares à comunidade carente, além de apoio na construção de casas para a comunidade e atividades como dança, teatro, jiu-jítsu, costura, aulas de Inglês, etc. Cerca de 200 pessoas são impactadas mensalmente."
  },
  {
    "codigo": "I-02",
    "estado": "PARANÁ",
    "cidade": "APUCARANA",
    "telefone": "(43) 3033-2023",
    "endereco": "Rua Antônio Ostrenski, 100 - Centro -  Apucarana- PR",
    "institucao": "CENTRO DE APOIO SOCIAL AO ADOLESCENTE – CASA",
    "resumo": "Ligada à Pastoral do Menor da Igreja Católica, presta atendimento a crianças e adolescentes em situação de risco pessoal e social do município, oferecendo serviços de contraturno escolar e de qualificação profissional, por meio de projetos que oferecem gratuitamente aulas de violão, artesanato, informática, artes marciais, culinária, etc. Cerca de 80 adolescentes são atendidos por mês."
  },
  {
    "codigo": "I-03",
    "estado": "PARANÁ",
    "cidade": "ARAUCÁRIA",
    "telefone": "(41) 3901-5125/ 98767-8577/ 99844-2914",
    "endereco": "Rua Archelau de Almeida Torres, 950 - Cachoeira - Araucária-PR",
    "institucao": "ASSOCIAÇÃO DE SAÚDE MENTAL DR. REGIS VIOLA – PROJETO ARAUSOL",
    "resumo": "Projeto de oficina produtiva de costura, gerenciado pela Associação de Saúde Mental Dr. Regis Viola, que visa à geração de renda e sustentabilidade, pelo qual pacientes com transtornos mentais produzem produtos artesanais por meio do reaproveitamento de resíduos das indústrias têxteis e que são comercializados em bazares e pelas redes sociais. Cerca de 20 pessoas são assistidas pelo projeto mensalmente."
  },
  {
    "codigo": "I-04",
    "estado": "PARANÁ",
    "cidade": "CAMPO LARGO",
    "telefone": "(41) 3393-4172",
    "endereco": "Rua Rui Barbosa, 848 - Centro - Campo Largo-PR",
    "institucao": "ASSOCIAÇÃO ERCEANA CAMPOLARGUENSE – ERCE",
    "resumo": "A Associação é a mantenedora da Escola de Integração e Recuperação da Criança Excepcional – ERCE, que atende aproximadamente 160 alunos diariamente, entre crianças, jovens e adultos, estudantes com diagnóstico de deficiência intelectual, associada ou não a outras deficiências ou transtornos. Também prestam atendimento a 20 alunos no contraturno escolar e a 25 mães semanalmente no Clube das Mães, totalizando cerca de 205 atendimentos por mês."
  },
  {
    "codigo": "I-05",
    "estado": "PARANÁ",
    "cidade": "CAMPO MOURÃO",
    "telefone": "(44) 3523-1605/ 3523-4969",
    "endereco": "Rua Antônio e Ozanan, 59 - Vila Rio Grande - Campo Mourão-PR",
    "institucao": "LAR DOS VELHINHOS FREDERICO OZANAN",
    "resumo": "O Lar dos Velhinhos Frederico Ozanan de Campo Mourão-PR é uma instituição filantrópica, sem fins lucrativos e com capacidade de atendimento para até 65 idosos de ambos os sexos, com idades a partir de 60 anos e que estão em situação de vulnerabilidade e risco social."
  },
  {
    "codigo": "I-06",
    "estado": "PARANÁ",
    "cidade": "CASTRO",
    "telefone": "(42) 99947-0403/ 2122-5254",
    "endereco": "Rua Paulo Henning, 642 - Morada do Sol - Castro-PR",
    "institucao": "ASSOCIAÇÃO DOS DEFICIENTES FISÍCOS DE CASTRO – ADF",
    "resumo": "A Associação dos Deficientes Físicos de Castro-PR desenvolve atividades em prol dos direitos dos deficientes físicos sensoriais e não sensoriais, oferecendo sessões de fisioterapia aos seus associados, em parceria com a Secretaria Municipal de Saúde, além de oferecer cursos de artesanato, empregabilidade, esporte e dança. São realizados aproximadamente 230 atendimentos por mês."
  },
  {
    "codigo": "I-07",
    "estado": "PARANÁ",
    "cidade": "COLOMBO",
    "telefone": "(41) 3037-7970/ 98455-6490",
    "endereco": "Rua Enemézio do Rosário Júnior, 350 - Atuba - Colombo-PR",
    "institucao": "ASSOCIAÇÃO BENEFICENTE PROJETO NOVA TERRA",
    "resumo": "Presta atendimento a aproximadamente 150 crianças e adolescentes mensalmente, que estão devidamente matriculados e com frequência normal na rede de ensino público, por meio de atividades de música, dança, teatro, orientação de princípios e valores bíblicos, ações culturais e lazer, além da escolinha de futsal."
  },
  {
    "codigo": "I-08",
    "estado": "PARANÁ",
    "cidade": "CURITIBA",
    "telefone": "(41) 3205-6692",
    "endereco": "Rua Laranjeiras, 72 - Conj. Colina Verde - Bairro Alto - Curitiba-PR",
    "institucao": "ASSOCIAÇÃO RUTH SCHRANK – ESCOLA DE EDUCAÇÃO ESPECIAL 29 DE MARÇO",
    "resumo": "A Escola de Educação Especial 29 de Março é mantida pela Associação Ruth Schrank e oferece mensalmente atendimento clínico, pedagógico e de assistência social a aproximadamente 107 alunos com múltiplas deficiências, estimulando seu desenvolvimento e autonomia com o objetivo de incluí-los na sociedade."
  },
  {
    "codigo": "I-09",
    "estado": "PARANÁ",
    "cidade": "CURITIBA",
    "telefone": "(41) 3014-5617/ 3014-5618",
    "endereco": "Av. Silva Jardim, 3180 - Água Verde - Curitiba-PR",
    "institucao": "ASSOCIAÇÃO PARANAENSE DOS PORTADORES DE PARKINSONISMO",
    "resumo": "Entidade sem fins lucrativos que tem como objetivo a melhoria na qualidade de vida da pessoa com a Doença de Parkinson por meio de atendimento integral multidisciplinar nas áreas da saúde e assistência social, além de representar a defesa de seus direitos para garantir medicamentos gratuitos e a valorização do convívio social. Atualmente presta atendimento a mais de 1.100 pessoas de todo o Brasil mensalmente, grande parte de Curitiba e região metropolitana."
  },
  {
    "codigo": "I-10",
    "estado": "PARANÁ",
    "cidade": "CURITIBA",
    "telefone": "(41) 99687-9932/ 3346-6267",
    "endereco": "Rua Helena Carvalho da Silva Corrêa, 238 - Pinheirinho - Curitiba-PR",
    "institucao": "CENTRO DE TRANSFORMAÇÃO SOCIAL VIDA NOVA – CTSVN",
    "resumo": "Atende aproximadamente 60 crianças e adolescentes mensalmente, entre 6 a 16 anos, no contraturno escolar, oferecendo oficinas variadas como acompanhamento escolar, aulas de Inglês, musicalização, oficinas artesanais, capoeira, dança, etc. Além disso, desenvolve ações socioeducativas com as famílias atendidas pelo projeto, realizando um trabalho educativo e preventivo, visando amenizar o risco pessoal e social e proporcionando aos participantes o desenvolvimento mental, físico e espiritual."
  },
  {
    "codigo": "I-11",
    "estado": "PARANÁ",
    "cidade": "CURITIBA",
    "telefone": "(41) 3078-4433",
    "endereco": "Rua Almirante Gonçalves, 830 - Rebouças - Curitiba-PR",
    "institucao": "ASSOCIAÇÃO CIVIL CHAVE DE DAVI – ESCOLA DE PRÍNCIPES",
    "resumo": "Atende aproximadamente 100 crianças, de 4 meses a 5 anos, em tempo integral, oferecendo quatro refeições diárias e atendimento pedagógico de qualidade, com aulas de robótica, Inglês, musicalização e artes, com custo baixo ou isenção total de contribuição. Cerca de 124 famílias são atendidas por mês."
  },
  {
    "codigo": "I-12",
    "estado": "PARANÁ",
    "cidade": "CURITIBA",
    "telefone": "(41) 3264-7234",
    "endereco": "Rua XV de Novembro, 2765 - Alto da XV - Curitiba-PR",
    "institucao": "ASSOCIAÇÃO DOS DEFICIENTES FÍSICOS DO PARANÁ - ADFP",
    "resumo": "Com o objetivo de instituir e coordenar amplos serviços de assistência social, habilitação e reabilitação de pessoas com deficiência física e mental (leve ou moderada), proporciona atividades sociais, recreativas e desportivas, além de atendimento em psicologia, terapia ocupacional, fisioterapia, enfermagem, informática, Ensino Fundamental e Médio, por meio da Educação de Jovens e Adultos (EJA), capacitação, inclusão e a reinserção no mercado de trabalho."
  },
  {
    "codigo": "I-13",
    "estado": "PARANÁ",
    "cidade": "CURITIBA",
    "telefone": "(41) 3044-1661",
    "endereco": "Rua Oscar Wilde, 224 - Vila Lindoia - Curitiba-PR",
    "institucao": "FUNDAÇÃO EDUCACIONAL MENINOS E MENINAS DE RUA PROFETA ELIAS – MENINOS DE 4 PINHEIROS",
    "resumo": "Mais conhecida como Meninos de 4 Pinheiros, a entidade atua no acolhimento institucional de crianças e adolescentes em risco e vulnerabilidade social, além de oferecer atendimento psicossocial, educacional, clínico e odontológico. Atualmente a fundação tem a capacidade para 60 meninos, entre 6 e 18 anos."
  },
  {
    "codigo": "I-14",
    "estado": "PARANÁ",
    "cidade": "FAZENDA RIO GRANDE",
    "telefone": "(41) 99812-0345",
    "endereco": "Rua São Natalino, 2258 - casa 9 - Santa Terezinha - Fazenda Rio Grande-PR",
    "institucao": "ASSOCIAÇÃO CULTURAL BANDA ESCOLA FAZENDA RIO GRANDE",
    "resumo": "A Associação tem como objetivo fornecer alimentação, uniformes e formação em fanfarra, banda, linha de frente, além do curso de musicalização. Os alunos formados participam de apresentações em todo o Paraná. Cerca de 300 alunos são beneficiados pela instituição mensalmente."
  },
  {
    "codigo": "I-15",
    "estado": "SANTA CATARINA",
    "cidade": "JOINVILLE",
    "telefone": "(47) 3433-6355 ",
    "endereco": "Rua José Elias Giuliari, 95 - Boa Vista - Joinville-SC",
    "institucao": "ASSOCIAÇÃO DOS DEFICIENTES FÍSICOS DE JOINVILLE – ADEJ",
    "resumo": "A ADEJ presta serviços às pessoas com deficiência e suas famílias por meio de atendimento em fisioterapia, fonoaudiologia, terapia ocupacional, psicologia, serviço social, acupuntura, pilates, massoterapia, hidroterapia, serviços de convivência e teatro, além de capacitações e inserção ao mercado de trabalho. Cerca de 80 deficientes físicos são atendidos por mês."
  },
  {
    "codigo": "I-16",
    "estado": "PARANÁ",
    "cidade": "LAPA",
    "telefone": "(41) 3622-0000/ 98410-6279",
    "endereco": "Rua Barão do Rio Branco, 1850 - Centro - Lapa-PR",
    "institucao": "ASSOCIAÇÃO DE DESBRAVADORES DA LAPA – ADL",
    "resumo": "Atende jovens e crianças, entre 8 e 18 anos, com o objetivo de contribuir na educação e formação sociocultural, dando ênfase ao seu desenvolvimento físico, intelectual, moral e espiritual. Cerca de 150 pessoas beneficiadas por mês."
  },
  {
    "codigo": "I-17",
    "estado": "PARANÁ",
    "cidade": "LONDRINA",
    "telefone": "(43) 3025-4644/ 3339-5418",
    "endereco": "Rua Benjamin Franklin, 23, Quadra 1, Chácara 3 - Parque Jamaica - Londrina-PR",
    "institucao": "NÚCLEO SOCIAL EVANGÉLICO DE LONDRINA – NUSELON",
    "resumo": "O Nuselon mantém 4 unidades de acolhimento institucional (abrigo), que atendem aproximadamente 40 crianças e adolescentes que vivenciaram situações de abandono, negligência, maus-tratos, violências física, sexual e psicológica, etc. e que foram encaminhados pelos Conselhos Tutelares."
  },
  {
    "codigo": "I-18",
    "estado": "SANTA CATARINA",
    "cidade": "MAFRA",
    "telefone": "(47) 3642-4264",
    "endereco": "BR 116, km 3, s/nº - Jardim América - Mafra-SC",
    "institucao": "ASSOCIAÇÃO TERAPÊUTICA NOVO AMANHECER – ATENA",
    "resumo": "A Associação tem o objetivo de auxiliar famílias que enfrentam problemas ocasionados pela dependência de  álcool ou drogas, por meio de um modelo de acolhimento psicossocial conhecido como Comunidade Terapêutica. São 40 pessoas atendidas mensalmente."
  },
  {
    "codigo": "I-19",
    "estado": "PARANÁ",
    "cidade": "MARINGÁ",
    "telefone": "(44) 3227-4253",
    "endereco": "Pça Emiliano Perneta, 20 - Vila Operária - Maringá-PR",
    "institucao": "ASSOCIAÇÃO CULTURAL E EDUCACIONAL INFANTIL MENINO JESUS",
    "resumo": "Mais conhecida como Creche Menino Jesus, atende aproximadamente 325 crianças e adolescentes diariamente, que são encaminhadas para a instituição pelos CRAS da cidade de Maringá e que estão em situação de vulnerabilidade social. Na entidade são desenvolvidas oficinas de musicalização, teatro, dança, música, esportes, etc. e trabalhados temas específicos para o desenvolvimento da cidadania, como cuidado com o meio ambiente e direitos humanos."
  },
  {
    "codigo": "I-20",
    "estado": "PARANÁ",
    "cidade": "PARANAGUÁ",
    "telefone": "(41) 3425-2431/ 99236-2264/ 98484-4913",
    "endereco": "Rua Maneco Viana, 1662 - Alto São Sebastião - Paranaguá-PR",
    "institucao": "REDE FEMININA DE COMBATE AO CÂNCER DE PARANAGUÁ",
    "resumo": "A entidade atende mensalmente cerca de 60 pacientes carentes com câncer, distribuindo cestas básicas e fornecendo auxílio na aquisição de bolsas de colostomia e fraldas, em exames médicos e na compra de passagens rodoviárias para tratamento em Curitiba-PR, além de apoio e dedicação em visitas domiciliares e hospitalares."
  },
  {
    "codigo": "I-21",
    "estado": "PARANÁ", 
    "cidade": "PINHAIS",
    "telefone": "(41) 99838-0473",
    "endereco": "Rua Alto Paraná, 924 - Emiliano Perneta - Pinhais-PR",
    "institucao": "ASSOCIAÇÃO DE MORADORES NOVA UNIÃO DE PINHAIS",
    "resumo": "A Associação oferece cursos gratuitos para a comunidade, como aulas de Muay Thai, capoeira, ginástica, futebol, voleibol, Inglês, Zumba, cursos de confeitaria e salgados. Também atende a comunidade carente com doações de alimentos, roupas e calçados. Cerca de 800 pessoas de todas as faixas etárias são atendidas."
  },
  {
    "codigo": "I-22",
    "estado": "PARANÁ",
    "cidade": "PONTA GROSSA",
    "telefone": "(42) 3223-9414",
    "endereco": "Rua Herculano de Freitas, 751 - Jardim Carvalho - Ponta Grossa-PR",
    "institucao": "ASSOCIAÇÃO MINISTÉRIO MELHOR VIVER",
    "resumo": "Atende pessoas em situação de rua, com risco e vulnerabilidade social, por meio de seis projetos sociais que visam à inclusão social e digital, retomada de projetos de vida, restauração de vínculos familiares, capacitação profissional e emancipação social. Direciona ao acolhimento institucional, atendimento, orientação e encaminhamento socioassistencial e à rede intersetorial. Cerca de 700 pessoas são atendidas por mês."
  },
  {
    "codigo": "I-23",
    "estado": "PARANÁ",
    "cidade": "PONTA GROSSA",
    "telefone": "(42) 3222-9238",
    "endereco": "Rua João Adamowicz, s/nº - Quadra 5 – Jd. Gianna II - Ponta Grossa-PR",
    "institucao": "ASSOCIAÇÃO PONTAGROSSENSE DE PORTADORES DAS DEFORMIDADES FACIAIS – APPDF",
    "resumo": "A APPDF é mantenedora do Centro de Atendimento Educacional Especializado de Lesão Labiopalatal Professora Raquel Sarraf Masini e tem como objetivo a reabilitação na área da saúde, promoção social e apoio pedagógico do portador de lesão labiopalatal a partir de 0 (zero) anos até a terceira idade. Atualmente são 445 pacientes cadastrados, com atendimento mensal de aproximadamente 300 pessoas de Ponta Grossa-PR e da região de Campos Gerais atendidos nas áreas de assistência social, psicologia, odontologia, fonoaudiologia e apoio pedagógico."
  },
  {
    "codigo": "I-24",
    "estado": "PARANÁ",
    "cidade": "SÃO JOSÉ DOS PINHAIS",
    "telefone": "(41) 3556-4351 (41) 99702-0004",
    "endereco": "Rua Padre Humberto Robig, 114 - Borda do Campo - São José dos Pinhais-PR",
    "institucao": "ASSOCIAÇÃO BORDA VIVA",
    "resumo": "A Associação tem como objetivo promover o desenvolvimento social e o resgate social da família, dando uma atenção especial à criança e promovendo a mulher para o mercado de trabalho. De 2002 a 2018 foram mais de 43 mil pessoas impactadas diretamente. Por ano, mais de 37 mil refeições são distribuídas a crianças cadastradas da comunidade e que vivem em situação de vulnerabilidade social."
  }
 ]