[
  {"id":"1121321","ano":"2011","cidade":"Apucarana-pr","nome":"Lar s\u00e3o Vicente de Paulo","desc":"Na quinta edi\u00e7\u00e3o da Campanha Solid\u00e1ria Condor, foram arrecadados R$ 279.167,65, valor que foi doado a 21 institui\u00e7\u00f5es beneficentes. ","foto":"2011-1.jpg"},
  {"id":"22121","ano":"2011","cidade":"Arauc\u00e1ria","nome":"Casa Lar Cora\u00e7\u00e3o de M\u00e3e","desc":"Na quinta edi\u00e7\u00e3o da Campanha Solid\u00e1ria Condor, foram arrecadados R$ 279.167,65 doados para 21 institui\u00e7\u00f5es beneficentes. ","foto":"2011-2.jpg"},
  {"id":"1121322","ano":"2011","cidade":"Campo Largo-pr","nome":"Associa\u00e7\u00e3o dos Deficientes F\u00edsicos de Campo Largo - ADFCL","desc":"","foto":""},
  {"id":"1121323","ano":"2011","cidade":"Curitiba-pr","nome":"Associa\u00e7\u00e3o Lar Crian\u00e7arteira","desc":"","foto":""},
  {"id":"1121324","ano":"2011","cidade":"Curitiba-pr","nome":"Associa\u00e7\u00e3o Feminina de Prote\u00e7\u00e3o \u00e0 Maternidade e \u00e0 Inf\u00e2ncia - AFPMI ","desc":"","foto":""},
  {"id":"1121325","ano":"2011","cidade":"Curitiba-pr","nome":"Associa\u00e7\u00e3o Apoio \u2013 Creche Comunit\u00e1ria Cantinho do Parque","desc":"","foto":""},
  {"id":"1121326","ano":"2011","cidade":"Curitiba-pr","nome":"Escola de Educa\u00e7\u00e3o Especial Alternativa - AMENA","desc":"","foto":""},
  {"id":"1121327","ano":"2011","cidade":"Curitiba-pr","nome":"N\u00facleo de Apoio \u00e0 Crian\u00e7a Excepcional de Curitiba - NACEC","desc":"","foto":""},
  {"id":"1121328","ano":"2011","cidade":"Curitiba-pr","nome":"Instituto Tibagi - ETTIBAGI","desc":"","foto":""},
  {"id":"1121329","ano":"2011","cidade":"Curitiba-pr","nome":"Associa\u00e7\u00e3o Caminho a Vida - Lar Dona Vera ","desc":"","foto":""},
  {"id":"1121330","ano":"2011","cidade":"Curitiba-pr","nome":"Associa\u00e7\u00e3o Cat\u00f3lica Filantr\u00f3pica Santa Efig\u00eania - ACAFISE","desc":"","foto":""},
  {"id":"1121331","ano":"2011","cidade":"Fazenda Rio Grande-pr","nome":"Centro de Assist\u00eancia e Desenvolvimento Integral - CADI","desc":"","foto":""},
  {"id":"1121332","ano":"2011","cidade":"LAPA-pr","nome":"Associa\u00e7\u00e3o Menonita de Assist\u00eancia Social - AMA","desc":"","foto":""},
  {"id":"1121333","ano":"2011","cidade":"Londrina-pr","nome":"Associa\u00e7\u00e3o dos Deficientes Visuais de Londrina e Regi\u00e3o - ADEVILON","desc":"","foto":""},
  {"id":"1121334","ano":"2011","cidade":"Maring\u00e1-pr","nome":"Funda\u00e7\u00e3o Isis Bruder","desc":"","foto":""},
  {"id":"1121335","ano":"2011","cidade":"Paranagu\u00e1-pr","nome":"Instituto Palazzollo","desc":"","foto":""},
  {"id":"1121336","ano":"2011","cidade":"Paranagu\u00e1-pr","nome":"Associa\u00e7\u00e3o de Colaboradores da Escola de Deficientes  Auditivos de Paranagu\u00e1 - ACEDA","desc":"","foto":""},
  {"id":"1121337","ano":"2011","cidade":"Ponta Grossa-pr","nome":"Associa\u00e7\u00e3o Comunit\u00e1ria de Apoio ao CEPRAF Geny J. S. Ribas","desc":"","foto":""},
  {"id":"1121338","ano":"2011","cidade":"Ponta Grossa-pr","nome":"Francisclara \u2013 Resgate da Crian\u00e7a e da Fam\u00edlia","desc":"","foto":""},
  {"id":"1121339","ano":"2011","cidade":"S\u00e3o Jos\u00e9 dos Pinhais-pr","nome":"Associa\u00e7\u00e3o de Pais e Amigos dos Excepcionais - APAE","desc":"","foto":""},
  {"id":"1121340","ano":"2007","cidade":"Apucarana-pr","nome":"Lar S\u00e3o Vicente de Paulo","desc":"Na primeira edi\u00e7\u00e3o da Campanha Solid\u00e1ria Condor, foram arrecadados R$ 85.111,36, valor que foi doado a 11 institui\u00e7\u00f5es beneficentes. ","foto":"2007.jpg"},
  {"id":"1121440","ano":"2013","cidade":"Curitiba-pr","nome":"Legi\u00e3o da Boa Vontade - LVB ","desc":"","foto":""},
  {"id":"1121341","ano":"2007","cidade":"Arauc\u00e1ria-pr","nome":"Casa Lar Cora\u00e7\u00e3o de M\u00e3e","desc":"","foto":""},
  {"id":"1121342","ano":"2007","cidade":"Curitiba-pr","nome":"Lar dos Meninos do Xaxim","desc":"","foto":""},
  {"id":"1121343","ano":"2007","cidade":"Curitiba-pr","nome":"Casa das Meninas Jardim Pinheiros","desc":"","foto":""},
  {"id":"1121344","ano":"2007","cidade":"Curitiba-pr","nome":"Abrigo Santa Clara","desc":"","foto":""},
  {"id":"1121345","ano":"2007","cidade":"Lapa-pr","nome":"Escola Especial Integra\u00e7\u00e3o \u00e0 Vida - APAE","desc":"","foto":""},
  {"id":"1121346","ano":"2007","cidade":"Londrina-pr","nome":"Cord\u00e3o de Tr\u00eas Dobras \u2013 Central de Apoio e Recupera\u00e7\u00e3o de Vidas","desc":"","foto":""},
  {"id":"1121347","ano":"2007","cidade":"Maring\u00e1-pr","nome":"ANPR \u2013 Associa\u00e7\u00e3o Norte-Paranaense de Reabilita\u00e7\u00e3o","desc":"","foto":""},
  {"id":"1121348","ano":"2007","cidade":"Paranagu\u00e1-pr","nome":"Miss\u00e3o de Resgate, Restaura\u00e7\u00e3o e Vida ao Menor \u2013 Desafio Jovem Betel","desc":"","foto":""},
  {"id":"1121349","ano":"2007","cidade":"Ponta Grossa-pr","nome":"Casa da Terceira Idade Santa Paula","desc":"","foto":""},
  {"id":"1121350","ano":"2007","cidade":"S\u00e3o Jos\u00e9 dos Pinhais-pr","nome":"Associa\u00e7\u00e3o de Prote\u00e7\u00e3o \u00e0 Maternidade e \u00e0 Inf\u00e2ncia de SJP - APMI ","desc":"","foto":""},
  {"id":"1121351","ano":"2008","cidade":"Apucarana-pr","nome":"Grupo Soma \u2013 Lar Sagrada Fam\u00edlia","desc":"Na segunda edi\u00e7\u00e3o da Campanha Solid\u00e1ria Condor, foram arrecadados R$ 154.050,98, valor que foi doado a 15 institui\u00e7\u00f5es beneficentes. ","foto":"2008.jpg"},
  {"id":"1121352","ano":"2008","cidade":"Arauc\u00e1ria-pr","nome":"Associa\u00e7\u00e3o de Pais e Amigos dos Excepcionais - APAE","desc":"","foto":""},
  {"id":"1121353","ano":"2008","cidade":"Campo Largo-pr","nome":"Casa Lar do Idoso","desc":"","foto":""},
  {"id":"1121354","ano":"2008","cidade":"Curitiba-pr","nome":"Associa\u00e7\u00e3o Iniciativa Cultural Passos da Crian\u00e7a","desc":"","foto":""},
  {"id":"1121355","ano":"2008","cidade":"Curitiba-pr","nome":"Associa\u00e7\u00e3o Sul-Paranaense da IASD","desc":"","foto":""},
  {"id":"1121356","ano":"2008","cidade":"Curitiba-pr","nome":"Associa\u00e7\u00e3o Curitibana dos \u00d3rf\u00e3os da AIDS - ACOA","desc":"","foto":""},
  {"id":"1121357","ano":"2008","cidade":"Curitiba-pr","nome":"Associa\u00e7\u00e3o Paranaense dos Hemof\u00edlicos","desc":"","foto":""},
  {"id":"1121358","ano":"2008","cidade":"Curitiba-pr","nome":"Associa\u00e7\u00e3o Paranaense S\u00e3o Roque","desc":"","foto":""},
  {"id":"1121359","ano":"2008","cidade":"Curitiba-pr","nome":"Associa\u00e7\u00e3o da Caridade S\u00e3o Vicente de Paulo do Santa C\u00e2ndida","desc":"","foto":""},
  {"id":"1121360","ano":"2008","cidade":"Lapa-pr","nome":"Lar de Idosos S\u00e3o Vicente de Paulo","desc":"","foto":""},
  {"id":"1121361","ano":"2008","cidade":"Londrina-pr","nome":"Obras Assistenciais S\u00e3o Vicente de Paulo","desc":"","foto":""},
  {"id":"1121362","ano":"2008","cidade":"Maring\u00e1-pr","nome":"Associa\u00e7\u00e3o Beneficente Estrela da Manh\u00e3 \u2013 Casa Ema\u00fas","desc":"","foto":""},
  {"id":"1121363","ano":"2008","cidade":"Paranagu\u00e1-pr","nome":"Centro Educacional S\u00e3o Vicente de Paulo","desc":"","foto":""},
  {"id":"1121364","ano":"2008","cidade":"Ponta Grossa-pr","nome":"Lar Odilon Mendes","desc":"","foto":""},
  {"id":"1121365","ano":"2008","cidade":"S\u00e3o Jos\u00e9 dos Pinhais-pr","nome":"Patronato Santo Ant\u00f4nio","desc":"","foto":""},
  {"id":"1121439","ano":"2013","cidade":"Curitiba-pr","nome":"Funda\u00e7\u00e3o Pr\u00f3-Renal ","desc":"","foto":""},
  {"id":"1121366","ano":"2009","cidade":"Apucarana-pr","nome":"Associa\u00e7\u00e3o Cultural Beneficente Resgate de Deus - Casa de Miseric\u00f3rdia","desc":"Na terceira edi\u00e7\u00e3o da Campanha Solid\u00e1ria Condor, foram arrecadados R$ 233.826,20, valor que foi doado a 20 institui\u00e7\u00f5es beneficentes. ","foto":""},
  {"id":"1121438","ano":"2013","cidade":"Curitiba-pr","nome":"A\u00e7\u00e3o Social do Paran\u00e1 ","desc":"","foto":""},
  {"id":"1121367","ano":"2009","cidade":"Arauc\u00e1ria-pr","nome":"Associa\u00e7\u00e3o de Prote\u00e7\u00e3o \u00e0 Maternidade e \u00e0 Inf\u00e2ncia - APMI","desc":"","foto":""},
  {"id":"1121368","ano":"2009","cidade":"Campo Largo-pr","nome":"Associa\u00e7\u00e3o Aldeia S\u00e3o Jos\u00e9","desc":"","foto":""},
  {"id":"1121369","ano":"2009","cidade":"Curitiba-pr","nome":"Associa\u00e7\u00e3o Paranaense de Apoio \u00e0 Crian\u00e7a com Neoplasia - APACN","desc":"","foto":""},
  {"id":"1121370","ano":"2009","cidade":"Curitiba-pr","nome":"Casa de Retorno ao Lar - CRL ","desc":"","foto":""},
  {"id":"1121371","ano":"2009","cidade":"Curitiba-pr","nome":"Lar Batista Esperan\u00e7a","desc":"","foto":""},
  {"id":"1121372","ano":"2009","cidade":"Curitiba-pr","nome":"Lar O Bom Caminho","desc":"","foto":""},
  {"id":"1121373","ano":"2009","cidade":"Curitiba-pr","nome":"Associa\u00e7\u00e3o de Santa Rita de C\u00e1ssia Lar Iracy - Lar Iracy Dantas de Andrade","desc":"","foto":""},
  {"id":"1121374","ano":"2009","cidade":"Curitiba-pr","nome":"Associa\u00e7\u00e3o Casas do Servo Sofredor - Mosteiro Monte Carmelo","desc":"","foto":""},
  {"id":"1121375","ano":"2009","cidade":"Curitiba-pr","nome":"A\u00e7\u00e3o Social da Par\u00f3quia Nossa Senhora da Concei\u00e7\u00e3o","desc":"","foto":""},
  {"id":"1121376","ano":"2009","cidade":"Curitiba-pr","nome":"Pequeno Cotolengo do Paran\u00e1 Dom Orione","desc":"","foto":""},
  {"id":"1121377","ano":"2009","cidade":"Curitiba-pr","nome":"Asilo S\u00e3o Vicente de Paulo \u2013 A\u00e7\u00e3o Social do Paran\u00e1","desc":"","foto":""},
  {"id":"1121387","ano":"2010","cidade":"Apucarana-pr","nome":"ASSOCIA\u00c7\u00c3O DE LIBERTA\u00c7\u00c3O DE VIDAS APUCARANA - ALVA","desc":"Na quarta edi\u00e7\u00e3o da Campanha Solid\u00e1ria Condor, foram arrecadados R$ 233.278,05, valor que foi doado a 21 institui\u00e7\u00f5es beneficentes. ","foto":"2010.jpg"},
  {"id":"1121379","ano":"2009","cidade":"Lapa-pr","nome":"Associa\u00e7\u00e3o das Damas de Caridade e o Lar e Educand\u00e1rio S\u00e3o Vicente de Paulo","desc":"","foto":""},
  {"id":"1121380","ano":"2009","cidade":"Londrina-pr","nome":"Casa de Maria Centro de Apoio a Dependentes","desc":"","foto":""},
  {"id":"1121381","ano":"2009","cidade":"Maring\u00e1-pr","nome":"Asilo S\u00e3o Vicente de Paulo","desc":"","foto":""},
  {"id":"1121382","ano":"2009","cidade":"Paranagu\u00e1-pr","nome":"Sociedade de Assist\u00eancia aos Necessitados - Abrigo dos Velhos","desc":"","foto":""},
  {"id":"1121383","ano":"2009","cidade":"Paranagu\u00e1-pr","nome":"Pastoral da Crian\u00e7a de Paranagu\u00e1","desc":"","foto":""},
  {"id":"1121384","ano":"2009","cidade":"Ponta Grossa-pr","nome":"Associa\u00e7\u00e3o de Pais e Amigos dos Excepcionais de Ponta Grossa - APAE ","desc":"","foto":""},
  {"id":"1121385","ano":"2009","cidade":"Ponta Grossa-pr","nome":"Associa\u00e7\u00e3o Reviver de Assist\u00eancia ao Portador do V\u00edrus HIV","desc":"","foto":""},
  {"id":"1121386","ano":"2009","cidade":"S\u00e3o Jos\u00e9 dos Pinhais-pr","nome":"Centro de Amparo aos Idosos Jesus Maria Jos\u00e9","desc":"","foto":""},
  {"id":"1121430","ano":"2013","cidade":"Apucarana-pr","nome":"Casa de Apoio Divina Provid\u00eancia","desc":"Em 2013, na s\u00e9tima edi\u00e7\u00e3o, a Campanha Solid\u00e1ria Condor doou R$ 424.000,00 para 21 institui\u00e7\u00f5es, ultrapassando um total de 1 milh\u00e3o e setecentos mil Reais em doa\u00e7\u00f5es. ","foto":""},
  {"id":"1121431","ano":"2013","cidade":"Arauc\u00e1ria-pr","nome":"Centro de Educa\u00e7\u00e3o Social Schnorr","desc":"","foto":""},
  {"id":"1121432","ano":"2013","cidade":"Campo Largo-pr","nome":"Associa\u00e7\u00e3o Erceana Campolarguense","desc":"","foto":""},
  {"id":"1121433","ano":"2013","cidade":"Castro-pr","nome":"Casa da Crian\u00e7a e do Adolescente Padre Marcelo Quilici","desc":"","foto":""},
  {"id":"1121434","ano":"2013","cidade":"Colombo-pr","nome":"Associa\u00e7\u00e3o Beneficente Rosanna Cattalini","desc":"","foto":""},
  {"id":"1121435","ano":"2013","cidade":"Curitiba-pr","nome":"Associa\u00e7\u00e3o Beneficente de M\u00e3os Unidas","desc":"","foto":""},
  {"id":"1121436","ano":"2013","cidade":"Curitiba-pr","nome":"Centro de Orienta\u00e7\u00e3o e Controle dos Excepcionais de Curitiba - COCEC","desc":"","foto":""},
  {"id":"1121437","ano":"2013","cidade":"Curitiba-pr","nome":"Associa\u00e7\u00e3o Santa Terezinha de Reabilita\u00e7\u00e3o Auditiva \u2013 ASTRAU","desc":"","foto":""},
  {"id":"1121388","ano":"2010","cidade":"Arauc\u00e1ria-pr","nome":"ASSOCIA\u00c7\u00c3O E PROTE\u00c7\u00c3O AOS IDOSOS LUZ E VIDA","desc":"","foto":""},
  {"id":"1121389","ano":"2010","cidade":"Campo Largo-pr","nome":"INSTITUI\u00c7\u00c3O MOVIMENTO RECRIAN\u00c7A","desc":"","foto":""},
  {"id":"1121391","ano":"2010","cidade":"Curitiba-pr","nome":"ASSOCIA\u00c7\u00c3O CRIST\u00c3 LAR DONA NEN\u00ca","desc":"","foto":""},
  {"id":"1121392","ano":"2010","cidade":"Curitiba-pr","nome":"ASSOCIA\u00c7\u00c3O DA MISSION\u00c1RIA AM\u00c9LIA VIDA NOVA PARA CRIAN\u00c7AS CARENTES","desc":"","foto":""},
  {"id":"1121393","ano":"2010","cidade":"Curitiba-pr","nome":"ASSOCIA\u00c7\u00c3O DE ASSIST\u00caNCIA A MUCOVISCIDOSE NO PARAN\u00c1 - AAMPR","desc":"","foto":""},
  {"id":"1121394","ano":"2010","cidade":"Curitiba-pr","nome":"ASSOCIA\u00c7\u00c3O FRANCISCANA DE EDUCA\u00c7\u00c3O AO CIDAD\u00c3O ESPECIAL - AFECE","desc":"","foto":""},
  {"id":"1121395","ano":"2010","cidade":"Curitiba-pr","nome":"ASSOCIA\u00c7\u00c3O SOLID\u00c1RIOS PELA VIDA - SOVIDA","desc":"","foto":""},
  {"id":"1121396","ano":"2010","cidade":"Curitiba-pr","nome":"FUNDA\u00c7\u00c3O INICIATIVA - MANTENEDORA DE CASAS LARES","desc":"","foto":""},
  {"id":"1121397","ano":"2010","cidade":"Curitiba-pr","nome":"GRUPO FRATERNIDADE ESP\u00cdRITA IRM\u00c3O BEZERRA DE MENEZES","desc":"","foto":""},
  {"id":"1121398","ano":"2010","cidade":"Curitiba-pr","nome":"MISS\u00c3O SOS VIDA \u2013  - CASA DA CRIAN\u00c7A E DO ADOLESCENTE COMUNIDADE TERAP\u00caUTICA","desc":"","foto":""},
  {"id":"1121399","ano":"2010","cidade":"Fazenda Rio Grande-pr","nome":"ASSOCIA\u00c7\u00c3O DE PAIS E AMIGOS DOS EXCEPCIONAIS DA FAZENDA RIO GRANDE - APAE","desc":"","foto":""},
  {"id":"1121400","ano":"2010","cidade":"Lapa-pr","nome":"ASSOCIA\u00c7\u00c3O DE APOIO AS PESSOAS DE NECESSIDADES ESPECIAIS - AAPNE","desc":"","foto":""},
  {"id":"1121401","ano":"2010","cidade":"Londrina-pr","nome":"Associa\u00e7\u00e3o Solidariedade Sempre - ASS","desc":"","foto":""},
  {"id":"1121402","ano":"2010","cidade":"Maring\u00e1-pr","nome":"ASSOCIACAO DE AMIGOS DA PASTORAL DA CRIAN\u00c7A - AAPAC","desc":"","foto":""},
  {"id":"1121403","ano":"2010","cidade":"Paranagu\u00e1-pr","nome":"ASSOCIA\u00c7\u00c3O CRIST\u00c3 DE ESTUDOS DA FRATERNIDADE IRMANADA - ACEFI","desc":"","foto":""},
  {"id":"1121404","ano":"2010","cidade":"Paranagu\u00e1-pr","nome":"ASSOCIA\u00c7\u00c3O DE PAIS E AMIGOS DOS EXCEPCIONAIS DE PARANAGU\u00c1 - APAE","desc":"","foto":""},
  {"id":"1121405","ano":"2010","cidade":"Ponta Grossa-pr","nome":"ASILO S\u00c3O VICENTE DE PAULO","desc":"","foto":""},
  {"id":"1121406","ano":"2010","cidade":"Ponta Grossa-pr","nome":"PASTORAL DA CRIANCA DE MARING\u00c1","desc":"","foto":""},
  {"id":"1121407","ano":"2010","cidade":"S\u00e3o Jos\u00e9 dos Pinhais-pr","nome":"ASSOCIA\u00c7\u00c3O DOS PAIS E AMIGOS DAS CRIANCAS PORTADORAS MIELOMENINGOCELE - APPAM","desc":"","foto":""},
  {"id":"1121408","ano":"2012","cidade":"Apucarana-pr","nome":"Associa\u00e7\u00e3o de Pais e Amigos dos Excepcionais - APAE","desc":"Na sexta edi\u00e7\u00e3o da Campanha Solid\u00e1ria Condor, foram arrecadados R$ 361.680,00, valor que foi doado a 21 institui\u00e7\u00f5es beneficentes. ","foto":"2012.jpg"},
  {"id":"1121409","ano":"2012","cidade":"Arauc\u00e1ria-pr","nome":"Fonte \u00c1gua Viva - FAV","desc":"","foto":""},
  {"id":"1121410","ano":"2012","cidade":"Campo Largo-pr","nome":"Centro de Integra\u00e7\u00e3o ao Menor - CIME","desc":"","foto":""},
  {"id":"1121411","ano":"2012","cidade":"Castro-pr","nome":"Obras Sociais Mariliana Barbosa","desc":"","foto":""},
  {"id":"1121412","ano":"2012","cidade":"Colombo-pr","nome":"Lar Herm\u00ednia Scheleder","desc":"","foto":""},
  {"id":"1121413","ano":"2012","cidade":"Curitiba-pr","nome":"A\u00e7\u00e3o Comunit\u00e1ria Batista no Boqueir\u00e3o","desc":"","foto":""},
  {"id":"1121414","ano":"2012","cidade":"Curitiba-pr","nome":"Funda\u00e7\u00e3o Ecum\u00eanica de Prote\u00e7\u00e3o ao Excepcional - FEPE","desc":"","foto":""},
  {"id":"1121415","ano":"2012","cidade":"Curitiba-pr","nome":"Clube das Ac\u00e1cias Unidas","desc":"","foto":""},
  {"id":"1121416","ano":"2012","cidade":"Curitiba-pr","nome":"Associa\u00e7\u00e3o Educativa Rainha da Paz","desc":"","foto":""},
  {"id":"1121417","ano":"2012","cidade":"Curitiba-pr","nome":"Associa\u00e7\u00e3o Arnaldo Gilberti - Livre Mente","desc":"","foto":""},
  {"id":"1121418","ano":"2012","cidade":"Curitiba-pr","nome":"Associa\u00e7\u00e3o Casa do Pai","desc":"","foto":""},
  {"id":"1121419","ano":"2012","cidade":"Curitiba-pr","nome":"Universidade Livre Para Efici\u00eancia Humana","desc":"","foto":""},
  {"id":"1121420","ano":"2012","cidade":"Curitiba-pr","nome":"Associa\u00e7\u00e3o Paranaense Alegria de Viver - APAV","desc":"","foto":""},
  {"id":"1121421","ano":"2012","cidade":"Curitiba-pr","nome":"Associa\u00e7\u00e3o Paranaense do Diab\u00e9tico Juvenil - APAD","desc":"","foto":""},
  {"id":"1121422","ano":"2012","cidade":"Fazenda Rio Grande-pr","nome":"Projeto Viver","desc":"","foto":""},
  {"id":"1121423","ano":"2012","cidade":"Lapa-pr","nome":"Centro de Recupera\u00e7\u00e3o Nova Esperan\u00e7a","desc":"","foto":""},
  {"id":"1121424","ano":"2012","cidade":"Londrina-pr","nome":"Associa\u00e7\u00e3o M\u00e3os Estendidas","desc":"","foto":""},
  {"id":"1121425","ano":"2012","cidade":"Maring\u00e1-pr","nome":"Associa\u00e7\u00e3o de Pais e Amigos dos Excepcionais de Maring\u00e1 - APAE","desc":"","foto":""},
  {"id":"1121426","ano":"2012","cidade":"Paranagu\u00e1-pr","nome":"Asilo S\u00e3o Vicente de Paula","desc":"","foto":""},
  {"id":"1121427","ano":"2012","cidade":"Ponta Grossa-pr","nome":"Associa\u00e7\u00e3o Artesanal do Excepcional de Ponta Grossa","desc":"","foto":""},
  {"id":"1121428","ano":"2012","cidade":"Pinhais-pr","nome":"Clube da Crian\u00e7a","desc":"","foto":""},
  {"id":"1121429","ano":"2012","cidade":"S\u00e3o Jos\u00e9 dos Pinhais-pr","nome":"Centro de Amparo ao Menor Nossa Senhora do Monte Claro","desc":"","foto":""},
  {"id":"1121441","ano":"2013","cidade":"Curitiba-pr","nome":"Associa\u00e7\u00e3o dos Deficientes Visuais do Paran\u00e1 - Adevipar ","desc":"","foto":""},
  {"id":"1121442","ano":"2013","cidade":"Curitiba-pr","nome":"CID - Centro de Integra\u00e7\u00e3o Digital","desc":"","foto":""},
  {"id":"1121443","ano":"2013","cidade":"Fazenda Rio Grande-pr","nome":"Associa\u00e7\u00e3o dos amigos do Hospital da Fazenda Rio Grande","desc":"","foto":""},
  {"id":"1121444","ano":"2013","cidade":"Lapa-pr","nome":"Associa\u00e7\u00e3o de Pais e Amigos dos Excepcionais da Lapa (APAE)","desc":"","foto":""},
  {"id":"1121445","ano":"2013","cidade":"Londrina-pr","nome":"Associa\u00e7\u00e3o Crist\u00e3 Evangelizadora Beneficente \u2013 ACEB","desc":"","foto":""},
  {"id":"1121446","ano":"2013","cidade":"Maring\u00e1-pr","nome":"Associa\u00e7\u00e3o Beneficente Casa de Nazar\u00e9","desc":"","foto":""},
  {"id":"1121447","ano":"2013","cidade":"Paranagu\u00e1-pr","nome":"Centro de Educa\u00e7\u00e3o Infantil Perseveran\u00e7a","desc":"","foto":""},
  {"id":"1121448","ano":"2013","cidade":"Pinhais-pr","nome":"Centro Espiritual C\u00e9u da Nova Vida","desc":"","foto":""},
  {"id":"1121449","ano":"2013","cidade":"Ponta Grossa-pr","nome":"Centro de Educa\u00e7\u00e3o Infantil Santo Ant\u00f4nio","desc":"","foto":""},
  {"id":"1121450","ano":"2013","cidade":"S\u00e3o Jos\u00e9 dos Pinhais-pr","nome":"Lar M\u00e3e Maria","desc":"","foto":""},
  {"id":"1121451","ano":"2014","cidade":"Almirante Tamandar\u00e9-pr","nome":"Casa de Recupera\u00e7\u00e3o \u00c1gua e Vida - CRAVI","desc":"Em 2014, na oitava edi\u00e7\u00e3o, a Campanha Solid\u00e1ria Condor doou R$ 477.400,00 para 22 institui\u00e7\u00f5es, ultrapassando um total de 2 milh\u00f5es de Reais em doa\u00e7\u00f5es.","foto":""},
  {"id":"1121452","ano":"2014","cidade":"Apucarana-pr","nome":"Escola de Desenvolvimento Humano Casa do Caminho - EDHUCCA","desc":"","foto":""},
  {"id":"1121453","ano":"2014","cidade":"Arauc\u00e1ria-pr","nome":"Associa\u00e7\u00e3o de Pais e Amigos dos Excepcionais - APAE","desc":"","foto":""},
  {"id":"1121454","ano":"2014","cidade":"Campo Largo-pr","nome":"Associa\u00e7\u00e3o Lar Feliz","desc":"","foto":""},
  {"id":"1121455","ano":"2014","cidade":"Castro-pr","nome":"Asilo S\u00e3o Vicente de Paulo","desc":"","foto":""},
  {"id":"1121456","ano":"2014","cidade":"Colombo-pr","nome":"Sociedade Crescer","desc":"","foto":""},
  {"id":"1121457","ano":"2014","cidade":"Curitiba-pr","nome":"Associa\u00e7\u00e3o do Deficiente Motor - Escola Vivian Mar\u00e7al","desc":"","foto":""},
  {"id":"1121458","ano":"2014","cidade":"Curitiba-pr","nome":"Associa\u00e7\u00e3o Vida Promo\u00e7\u00e3o Social - VPS","desc":"","foto":""},
  {"id":"1121459","ano":"2014","cidade":"Curitiba-pr","nome":"Centro de Desenvolvimento Recanto Esperan\u00e7a","desc":"","foto":""},
  {"id":"1121460","ano":"2014","cidade":"Curitiba-pr","nome":"Lar dos Meninos de S\u00e3o Luiz","desc":"","foto":""},
  {"id":"1121461","ano":"2014","cidade":"Curitiba-pr","nome":"Sociedade Socorro aos Necessitados","desc":"","foto":""},
  {"id":"1121462","ano":"2014","cidade":"Curitiba-pr","nome":"Associa\u00e7\u00e3o Abba Promo\u00e7\u00e3o Social","desc":"","foto":""},
  {"id":"1121463","ano":"2014","cidade":"Curitiba-pr","nome":"Associa\u00e7\u00e3o Crist\u00e3 de Assist\u00eancia Social - ACRIDAS","desc":"","foto":""},
  {"id":"1121464","ano":"2014","cidade":"Fazenda Rio Grande-pr","nome":"Agentes Multiplicadores Ambientais para Sustentabilidade - AMAS","desc":"","foto":""},
  {"id":"1121465","ano":"2014","cidade":"Lapa-pr","nome":"Lar Educand\u00e1rio S\u00e3o Vicente de Paulo","desc":"","foto":""},
  {"id":"1121466","ano":"2014","cidade":"Londrina-pr","nome":"Centro de Educa\u00e7\u00e3o Infantil S\u00e3o Jos\u00e9","desc":"","foto":""},
  {"id":"1121467","ano":"2014","cidade":"Maring\u00e1-pr","nome":"Lar Escola Crian\u00e7a de Maring\u00e1","desc":"","foto":""},
  {"id":"1121468","ano":"2014","cidade":"Paranagu\u00e1-pr","nome":"Associa\u00e7\u00e3o da Paz","desc":"","foto":""},
  {"id":"1121469","ano":"2014","cidade":"Pinhais-pr","nome":"Programa Atleta Bom de Nota","desc":"","foto":""},
  {"id":"1121470","ano":"2014","cidade":"Ponta Grossa-pr","nome":"N\u00facleo Promocional Pequeno Anjo","desc":"","foto":""},
  {"id":"1121471","ano":"2014","cidade":"Ponta Grossa-pr","nome":"Creche Nossa Senhora de Lurdes","desc":"","foto":""},
  {"id":"1121472","ano":"2014","cidade":"S\u00e3o Jos\u00e9 dos Pinhais-pr","nome":"Patronato Santo Ant\u00f4nio","desc":"","foto":""},
  {"id":"1121473","ano":"2015","cidade":"ALMIRANTE TAMANDAR\u00c9-pr","nome":"FACOP - Funda\u00e7\u00e3o do Asseio e Conserva\u00e7\u00e3o do Estado do Paran\u00e1","desc":"Em 2015, na nona edi\u00e7\u00e3o, a Campanha Solid\u00e1ria Condor doou R$ 493.100,00 para 22 institui\u00e7\u00f5es.","foto":""},
  {"id":"1121474","ano":"2015","cidade":"APUCARANA-pr","nome":"ADEFIAP - Associa\u00e7\u00e3o dos Deficientes F\u00edsicos de Apucarana","desc":"","foto":""},
  {"id":"1121475","ano":"2015","cidade":"ARAUC\u00c1RIA-pr","nome":"ONG Caminhos do Sol","desc":"","foto":""},
  {"id":"1121476","ano":"2015","cidade":"CAMPO LARGO-pr","nome":"Creche Lar Mariinha","desc":"","foto":""},
  {"id":"1121477","ano":"2015","cidade":"CASTRO-pr","nome":"Associa\u00e7\u00e3o de Assist\u00eancia Social de Castrolanda","desc":"","foto":""},
  {"id":"1121478","ano":"2015","cidade":"COLOMBO-pr","nome":"Associa\u00e7\u00e3o Luciane Mary Paris","desc":"","foto":""},
  {"id":"1121479","ano":"2015","cidade":"CURITIBA-pr","nome":"Associa\u00e7\u00e3o Guadalupana de Educa\u00e7\u00e3o Lassalista","desc":"","foto":""},
  {"id":"1121480","ano":"2015","cidade":"CURITIBA-pr","nome":"IHOEPAR \u2013 Instituto de Habilita\u00e7\u00e3o e Orienta\u00e7\u00e3o do Excepcional do Paran\u00e1","desc":"","foto":""},
  {"id":"1121481","ano":"2015","cidade":"CURITIBA-pr","nome":"APR - Associa\u00e7\u00e3o Paranaense de Reabilita\u00e7\u00e3o","desc":"","foto":""},
  {"id":"1121482","ano":"2015","cidade":"CURITIBA-pr","nome":"Rede Esperan\u00e7a","desc":"","foto":""},
  {"id":"1121483","ano":"2015","cidade":"CURITIBA-pr","nome":"CRENVI - Casa de Recupera\u00e7\u00e3o Nova Vida","desc":"","foto":""},
  {"id":"1121484","ano":"2015","cidade":"CURITIBA-pr","nome":"ASCER - Associa\u00e7\u00e3o Beneficente Renascer","desc":"","foto":""},
  {"id":"1121485","ano":"2015","cidade":"CURITIBA-pr","nome":"FORJA - Instituto de Forma\u00e7\u00e3o e Orienta\u00e7\u00e3o de Jovens e Adolescentes","desc":"","foto":""},
  {"id":"1121486","ano":"2015","cidade":"FAZENDA RIO GRANDE-pr","nome":"AVB - Associa\u00e7\u00e3o Vale da Ben\u00e7\u00e3o","desc":"","foto":""},
  {"id":"1121487","ano":"2015","cidade":"LAPA-pr","nome":"AMAS \u2013 Associa\u00e7\u00e3o Menonita de Assist\u00eancia Social","desc":"","foto":""},
  {"id":"1121488","ano":"2015","cidade":"LONDRINA-pr","nome":"SOMA - Sociedade Mantenedora de Assist\u00eancia","desc":"","foto":""},
  {"id":"1121489","ano":"2015","cidade":"MARING\u00c1-pr","nome":"AFIM \u2013 Associa\u00e7\u00e3o de Apoio ao Fissurado L\u00e1bio-Palatal de Maring\u00e1","desc":"","foto":""},
  {"id":"1121490","ano":"2015","cidade":"PARANAGU\u00c1-pr","nome":"Sociedade de Assist\u00eancia aos Necessitados \u2013 Abrigo dos Idosos","desc":"","foto":""},
  {"id":"1121491","ano":"2015","cidade":"PINHAIS-pr","nome":"FLAS - Funda\u00e7\u00e3o Luterana de Assist\u00eancia Social - Creche Bom Samaritano","desc":"","foto":""},
  {"id":"1121492","ano":"2015","cidade":"PONTA GROSSA-pr","nome":"Legi\u00e3o da Boa Vontade - Centro Comunit\u00e1rio de Assist\u00eancia Social","desc":"","foto":""},
  {"id":"1121493","ano":"2015","cidade":"PONTA GROSSA-pr","nome":"UNIDEV \u2013 Uni\u00e3o dos Deficientes Visuais de Ponta Grossa","desc":"","foto":""},
  {"id":"1121494","ano":"2015","cidade":"S\u00c3O JOS\u00c9 DOS PINHAIS-pr","nome":"IDAS - Instituto Decis\u00e3o de Apoio Social","desc":"","foto":""},
  {"id":"1121495","ano":"2010","cidade":"CURITIBA-pr","nome":"ASSOCIA\u00c7\u00c3O CAMINHO A VIDA - LAR DONA VERA","desc":"","foto":""},
  {"id":"1121496","ano":"2016","cidade":"ALMIRANTE TAMANDAR\u00c9-pr","nome":"Desafio Jovem Curitiba \u2013 CRER Jovem ","desc":"Em 2016, na sua 10\u00aa edi\u00e7\u00e3o, a Campanha Solid\u00e1ria Condor doou R$ 566.700,00 para 22 institui\u00e7\u00f5es.","foto":""},
  {"id":"1121497","ano":"2016","cidade":"APUCARANA-pr","nome":"Grupo Soma \u2013 Somando Amor pela Inf\u00e2ncia e Adolesc\u00eancia \u2013 Lar Sagrada Fam\u00edlia ","desc":"","foto":""},
  {"id":"1121498","ano":"2016","cidade":"ARAUC\u00c1RIA-pr","nome":"CEAR \u2013 Centro Educacional de Arauc\u00e1ria ","desc":"","foto":""},
  {"id":"1121499","ano":"2016","cidade":"CAMPO LARGO-pr","nome":"Funda\u00e7\u00e3o \u00c2ngelo Cret\u00e3 de Educa\u00e7\u00e3o e Desenvolvimento S\u00f3cio, Econ\u00f4mico e Ambiental","desc":"","foto":""},
  {"id":"1121500","ano":"2016","cidade":"CASTRO-pr","nome":"Associa\u00e7\u00e3o Paranaense de Apoio ao Excepcional \u2013 APAE Castro ","desc":"","foto":""},
  {"id":"1121501","ano":"2016","cidade":"COLOMBO-pr","nome":"Associa\u00e7\u00e3o de Amparo \u00e0 Crian\u00e7a e Casa de Apoio Tia Sula ","desc":"","foto":""},
  {"id":"1121502","ano":"2016","cidade":"CURITIBA-pr","nome":"Associa\u00e7\u00e3o das Senhoras de Caridade S\u00e3o Vicente de Paulo (Par\u00f3quia S\u00e3o Crist\u00f3v\u00e3o) ","desc":"","foto":""},
  {"id":"1121503","ano":"2016","cidade":"CURITIBA-pr","nome":"ABASC \u2013 Associa\u00e7\u00e3o Batista de A\u00e7\u00e3o Social de Curitiba ","desc":"","foto":""},
  {"id":"1121504","ano":"2016","cidade":"CURITIBA-pr","nome":"Casa das Orqu\u00eddeas \u2013 Centro Espiritualista de Estudos e Caridade ","desc":"","foto":""},
  {"id":"1121505","ano":"2016","cidade":"CURITIBA-pr","nome":"Associa\u00e7\u00e3o dos Amigos do Hospital de Cl\u00ednicas \u2013 AAHC ","desc":"","foto":""},
  {"id":"1121506","ano":"2016","cidade":"CURITIBA-pr","nome":"Associa\u00e7\u00e3o Bem Aventurada Imelda ","desc":"","foto":""},
  {"id":"1121507","ano":"2016","cidade":"CURITIBA-pr","nome":"Centro de Educa\u00e7\u00e3o Infantil V\u00f4 Batuta ","desc":"","foto":""},
  {"id":"1121508","ano":"2016","cidade":"FAZENDA RIO GRANDE-pr","nome":"Centro Social Marista Ir. Henri \u2013 Rede Marista de Solidariedade ","desc":"","foto":""},
  {"id":"1121509","ano":"2016","cidade":"JOINVILLE-sc","nome":"Bombeiros Volunt\u00e1rios de Joinville ","desc":"","foto":""},
  {"id":"1121510","ano":"2016","cidade":"LAPA-pr","nome":"Associa\u00e7\u00e3o de Pais e Amigos dos Excepcionais da Lapa \u2013 APAE Lapa ","desc":"","foto":""},
  {"id":"1121511","ano":"2016","cidade":"LONDRINA-pr","nome":"Legi\u00e3o da Boa Vontade \u2013 N\u00facleo Municipal em Londrina ","desc":"","foto":""},
  {"id":"1121512","ano":"2016","cidade":"MARING\u00c1-pr","nome":"Associa\u00e7\u00e3o Cultural e Beneficente \u00c1gua Viva (Centro de Conviv\u00eancia Jo\u00e3o Paulo ll)","desc":"","foto":""},
  {"id":"1121513","ano":"2016","cidade":"PARANAGU\u00c1-pr","nome":"Comunidade Milagre Eucar\u00edstico ","desc":"","foto":""},
  {"id":"1121514","ano":"2016","cidade":"PINHAIS-pr","nome":"Funda\u00e7\u00e3o Pr\u00f3-Pinhais de Promo\u00e7\u00e3o Humana \u2013 Funda\u00e7\u00e3o Hospitalar Pinhais ","desc":"","foto":""},
  {"id":"1121515","ano":"2016","cidade":"PONTA GROSSA-pr","nome":"Associa\u00e7\u00e3o Antonio e Marcos Cavanis \u2013 Casa do Menor Irm\u00e3os Cavanis ","desc":"","foto":""},
  {"id":"1121516","ano":"2016","cidade":"PONTA GROSSA-pr","nome":"Colmeia Esp\u00edrita Crist\u00e3 Abegail ","desc":"","foto":""},
  {"id":"1121517","ano":"2016","cidade":"S\u00c3O JOS\u00c9 DOS PINHAIS-pr","nome":"ONG Direito de Viver com Sa\u00fade \u2013 REVIVA ","desc":"","foto":""},
  {"id":"1121518","ano":"2017","cidade":"ALMIRANTE TAMANDAR\u00c9-pr","nome":"Casa do Caminho","desc":"Em 2017, na sua 11\u00aa edi\u00e7\u00e3o, a Campanha Solid\u00e1ria Condor doou R$ 624.800,00 para 22 institui\u00e7\u00f5es, ultrapassando um total de mais de 3,3 milh\u00f5es de reais em doa\u00e7\u00f5es.","foto":""},
  {"id":"1121519","ano":"2017","cidade":"APUCARANA-pr","nome":"CICCAK - Centro de Integra\u00e7\u00e3o e \r Capacita\u00e7\u00e3o de Crian\u00e7as Allan Kardec.","desc":"","foto":""},
  {"id":"1121520","ano":"2017","cidade":"ARAUC\u00c1RIA-pr","nome":"Associa\u00e7\u00e3o das Senhoras de Caridade S\u00e3o Vicente de Paulo","desc":"","foto":""},
  {"id":"1121521","ano":"2017","cidade":"CAMPO LARGO-pr","nome":"Casa de Retiros Santo Andr\u00e9","desc":"","foto":""},
  {"id":"1121522","ano":"2017","cidade":"CASTRO-pr","nome":"Centro Espirita Jesus Perante a \nCristandade","desc":"","foto":""},
  {"id":"1121523","ano":"2017","cidade":"COLOMBO-pr","nome":"APAE Colombo","desc":"","foto":""},
  {"id":"1121524","ano":"2017","cidade":"CURITIBA-pr","nome":"AMOVAAD - Associa\u00e7\u00e3o de Moradores da Vila Acordes e Adjac\u00eancias","desc":"","foto":""},
  {"id":"1121525","ano":"2017","cidade":"CURITIBA-pr","nome":"Instituto Social V\u00f3 Durvina","desc":"","foto":""},
  {"id":"1121526","ano":"2017","cidade":"CURITIBA-pr","nome":"Meninos de 4 Pinheiros - Funda\u00e7\u00e3o Educacional Meninos e Meninas de Rua Profeta Elias","desc":"","foto":""},
  {"id":"1121527","ano":"2017","cidade":"CURITIBA-pr","nome":"Funda\u00e7\u00e3o Pr\u00f3-Hansen - Cl\u00ednica de \nDermatologia Pr\u00f3 Hansen","desc":"","foto":""},
  {"id":"1121528","ano":"2017","cidade":"CURITIBA-pr","nome":"Semin\u00e1rio Rogacionista Jo\u00e3o Paulo II \/ Obra Social Santo Anibal","desc":"","foto":""},
  {"id":"1121529","ano":"2017","cidade":"CURITIBA-pr","nome":"Projeto Fazendo Diferen\u00e7a (FAZDI)","desc":"","foto":""},
  {"id":"1121530","ano":"2017","cidade":"JOINVILLE-SC","nome":"Universo Down","desc":"","foto":""},
  {"id":"1121531","ano":"2017","cidade":"LAPA-pr","nome":"CERENE - Centro de Recupera\u00e7\u00e3o Nova Esperan\u00e7a","desc":"","foto":""},
  {"id":"1121532","ano":"2017","cidade":"LONDRINA-pr","nome":"Instituto Roberto Miranda","desc":"","foto":""},
  {"id":"1121533","ano":"2017","cidade":"MARING\u00c1\t-pr","nome":"AMARAS - Associa\u00e7\u00e3o Maringaense de Apoio e Reintegra\u00e7\u00e3o de Adolescente\n- Recanto Mundo Jovem","desc":"","foto":""},
  {"id":"1121534","ano":"2017","cidade":"PARANAGU\u00c1-pr","nome":"Centro de Apoio aos Marinheiros de Paranagu\u00e1","desc":"","foto":""},
  {"id":"1121535","ano":"2017","cidade":"PINHAIS-pr","nome":"FRAPEL - Fraternidade Peregrino da Luz","desc":"","foto":""},
  {"id":"1121536","ano":"2017","cidade":"PONTA GROSSA-pr","nome":"Casa do Pia - Alian\u00e7a Brasileira de Assist\u00eancia Social e Educacional","desc":"","foto":""},
  {"id":"1121537","ano":"2017","cidade":"PONTA GROSSA-pr","nome":"Associa\u00e7\u00e3o Beneficiente Lua Nova","desc":"","foto":""},
  {"id":"1121538","ano":"2017","cidade":"S\u00c3O JOS\u00c9 DOS PINHAIS-pr","nome":"Associa\u00e7\u00e3o S\u00e3o Jos\u00e9-Casa de Repouso Para Idosos","desc":"","foto":""},
  {"id":"1121539","ano":"2017","cidade":"FAZENDA RIO GRANDE-pr","nome":"PROBEN - Projeto Beneficente no Tempo de Deus.","desc":"","foto":""},
  {"id":"1121540","ano":"2018","cidade":"ALMIRANTE TAMANDAR\u00c9-pr","nome":"Associa\u00e7\u00e3o Fonte de Miseric\u00f3rdia","desc":"Em 2018, na sua 12\u00aa edi\u00e7\u00e3o, a Campanha Solid\u00e1ria Condor doou R$ 519.570,00 para 23 institui\u00e7\u00f5es, ultrapassando um total de mais de 4,1 milh\u00f5es de reais em doa\u00e7\u00f5es.","foto":""},
  {"id":"1121541","ano":"2018","cidade":"APUCARANA-pr","nome":"Casa do DODO","desc":"","foto":""},
  {"id":"1121542","ano":"2018","cidade":"ARAUC\u00c1RIA-pr","nome":"Centro de Educa\u00e7\u00e3o Social Schnorr","desc":"","foto":""},
  {"id":"1121543","ano":"2018","cidade":"CAMPO LARGO-pr","nome":"Associa\u00e7\u00e3o Amor Viral","desc":"","foto":""},
  {"id":"1121544","ano":"2018","cidade":"CASTRO-pr","nome":"Centro de Educa\u00e7\u00e3o Infantil Irm\u00e3s Cavanis","desc":"","foto":""},
  {"id":"1121545","ano":"2018","cidade":"COLOMBO-pr","nome":"Funda\u00e7\u00e3o Francisco Bertoncello","desc":"","foto":""},
  {"id":"1121546","ano":"2018","cidade":"CURITIBA-pr","nome":"Associa\u00e7\u00e3o Lar Mois\u00e9s","desc":"","foto":""},
  {"id":"1121547","ano":"2018","cidade":"CURITIBA-pr","nome":"Associa\u00e7\u00e3o Terapia Intensiva do Amor (TIA)","desc":"","foto":""},
  {"id":"1121548","ano":"2018","cidade":"CURITIBA-pr","nome":"Associa\u00e7\u00e3o Sagrada Familia de Nazar\u00e9","desc":"","foto":""},
  {"id":"1121549","ano":"2018","cidade":"CURITIBA-pr","nome":"Irmandade Evang\u00e9lica Bet\u00e2nia (IEB)","desc":"","foto":""},
  {"id":"1121550","ano":"2018","cidade":"CURITIBA-pr","nome":"Instituto Semeando a Paz","desc":"","foto":""},
  {"id":"1121551","ano":"2018","cidade":"CURITIBA-pr","nome":"Uni\u00e3o Paranaense de Apoio \u00e0 Crian\u00e7a com C\u00e2ncer (UNIPACC)","desc":"","foto":""},
  {"id":"1121552","ano":"2018","cidade":"FAZENDA RIO GRANDE-pr","nome":"Associa\u00e7\u00e3o Beneficente Anjos da Cidadania (Ong Anjos da Cidadania)","desc":"","foto":""},
  {"id":"1121553","ano":"2018","cidade":"JOINVILLE-SC","nome":"Instituto de Reabilita\u00e7\u00e3o do Potencial Humano (IRPH)","desc":"","foto":""},
  {"id":"1121554","ano":"2018","cidade":"LAPA-pr","nome":"Lar de Idosos S\u00e3o Vicente de Paulo (Vicentinos)","desc":"","foto":""},
  {"id":"1121555","ano":"2018","cidade":"LONDRINA-pr","nome":"Ong Viver","desc":"","foto":""},
  {"id":"1121556","ano":"2018","cidade":"MARING\u00c1-pr","nome":"Associa\u00e7\u00e3o Maringaense dos Autistas (AMA)","desc":"","foto":""},
  {"id":"1121557","ano":"2018","cidade":"PARANAGU\u00c1-pr","nome":"Associa\u00e7\u00e3o Assistencial Nossa Senhora do Ros\u00e1rio","desc":"","foto":""},
  {"id":"1121558","ano":"2018","cidade":"PINHAIS-pr","nome":"Associa\u00e7\u00e3o dos Pais e Amigos dos Excepcionais de Pinhais (APAE Pinhais)","desc":"","foto":""},
  {"id":"1121559","ano":"2018","cidade":"PONTA GROSSA-pr","nome":"Programa Social Transformando Gera\u00e7\u00f5es (PSTG)","desc":"","foto":""},
  {"id":"1121560","ano":"2018","cidade":"PONTA GROSSA-pr","nome":"Vila Vicentina Casa de Acolhida","desc":"","foto":""},
  {"id":"1121561","ano":"2018","cidade":"S\u00c3O JOS\u00c9 DOS PINHAIS-pr","nome":"Associa\u00e7\u00e3o Padre Jo\u00e3o Roberto Ceconello (APJC)","desc":"","foto":""},
  {"id":"1121562","ano":"2019","cidade":"ALMIRANTE TAMANDAR\u00c9-pr","nome":"Jovens com uma Miss\u00e3o \"Monte das \u00c1guias\" \u2013 JOCUM","desc":"Confira as 24 institui\u00e7\u00f5es que ser\u00e3o beneficiadas pela Campanha Solid\u00e1ria 2019.","foto":null},
  {"id":"1121563","ano":"2019","cidade":"APUCARANA-pr","nome":"Centro de Apoio Social ao Adolescente \u2013 CASA","desc":null,"foto":null},
  {"id":"1121564","ano":"2019","cidade":"ARAUC\u00c1RIA-pr","nome":"Associa\u00e7\u00e3o de Sa\u00fade Mental Dr. Regis Viola \u2013 Projeto ARAUSOL","desc":null,"foto":null},
  {"id":"1121565","ano":"2019","cidade":"CAMPO LARGO-pr","nome":"Associa\u00e7\u00e3o Erceana Campolarguense \u2013 ERCE","desc":null,"foto":null},
  {"id":"1121566","ano":"2019","cidade":"CAMPO MOUR\u00c3O-pr","nome":"Lar dos Velhinhos Frederico Ozanan","desc":null,"foto":null},
  {"id":"1121567","ano":"2019","cidade":"CASTRO-pr","nome":"Associa\u00e7\u00e3o dos Deficientes Fis\u00edcos de Castro \u2013 ADF","desc":null,"foto":null},
  {"id":"1121568","ano":"2019","cidade":"COLOMBO-pr","nome":"Associa\u00e7\u00e3o Beneficente Projeto Nova Terra","desc":null,"foto":null},
  {"id":"1121569","ano":"2019","cidade":"CURITIBA-pr","nome":"Associa\u00e7\u00e3o Ruth Schrank \u2013 Escola de Educa\u00e7\u00e3o Especial 29 de Mar\u00e7o","desc":null,"foto":null},
  {"id":"1121570","ano":"2019","cidade":"CURITIBA-pr","nome":"Associa\u00e7\u00e3o Paranaense dos Portadores de Parkinsonismo","desc":null,"foto":null},
  {"id":"1121571","ano":"2019","cidade":"CURITIBA-pr","nome":"Centro de Transforma\u00e7\u00e3o Social Vida Nova \u2013 CTSVN","desc":null,"foto":null},
  {"id":"1121572","ano":"2019","cidade":"CURITIBA-pr","nome":"Associa\u00e7\u00e3o Civil Chave de Davi \u2013 Escola de Pr\u00edncipes","desc":null,"foto":null},
  {"id":"1121573","ano":"2019","cidade":"CURITIBA-pr","nome":"Associa\u00e7\u00e3o dos Deficientes F\u00edsicos do Paran\u00e1 - ADFP ","desc":null,"foto":null},
  {"id":"1121574","ano":"2019","cidade":"CURITIBA-pr","nome":"Funda\u00e7\u00e3o Educacional Meninos e Meninas de Rua Profeta Elias \u2013 Meninos de 4 Pinheiros","desc":null,"foto":null},
  {"id":"1121575","ano":"2019","cidade":"FAZENDA RIO GRANDE-pr","nome":"Associa\u00e7\u00e3o Cultural Banda Escola Fazenda Rio Grande","desc":null,"foto":null},
  {"id":"1121576","ano":"2019","cidade":"JOINVILLE-SC","nome":"Associa\u00e7\u00e3o dos Deficientes F\u00edsicos de Joinville \u2013 ADEJ ","desc":null,"foto":null},
  {"id":"1121577","ano":"2019","cidade":"LAPA-pr","nome":"Associa\u00e7\u00e3o de Desbravadores da Lapa \u2013 ADL","desc":null,"foto":null},
  {"id":"1121578","ano":"2019","cidade":"LONDRINA-pr","nome":"N\u00facleo Social Evang\u00e9lico de Londrina \u2013 NUSELON","desc":null,"foto":null},
  {"id":"1121579","ano":"2019","cidade":"MAFRA-sc","nome":"Associa\u00e7\u00e3o Terap\u00eautica Novo Amanhecer \u2013 ATENA","desc":null,"foto":null},
  {"id":"1121580","ano":"2019","cidade":"MARING\u00c1-pr","nome":"Associa\u00e7\u00e3o Cultural e Educacional Infantil Menino Jesus","desc":null,"foto":null},
  {"id":"1121581","ano":"2019","cidade":"PARANAGU\u00c1-pr","nome":"Rede Feminina de Combate ao C\u00e2ncer de Paranagu\u00e1","desc":null,"foto":null},
  {"id":"1121582","ano":"2019","cidade":"PINHAIS-pr","nome":"Associa\u00e7\u00e3o de Moradores Nova Uni\u00e3o de Pinhais","desc":null,"foto":null},
  {"id":"1121583","ano":"2019","cidade":"PONTA GROSSA-pr","nome":"Associa\u00e7\u00e3o Minist\u00e9rio Melhor Viver ","desc":null,"foto":null},
  {"id":"1121584","ano":"2019","cidade":"PONTA GROSSA-pr","nome":"Associa\u00e7\u00e3o Pontagrossense de Portadores das Deformidades Faciais \u2013 APPDF","desc":null,"foto":null},
  {"id":"1121585","ano":"2019","cidade":"S\u00c3O JOS\u00c9 DOS PINHAIS-pr","nome":"Associa\u00e7\u00e3o Borda Viva","desc":null,"foto":null}
]
